…
    fe_mn

    ## # A tibble: 249 × 8
    ##    site   core   rep fe_tot_mg_kg mn_mg_kg fe_ii_mg_kg fe_ii_to_iii experiment
    ##    <chr> <dbl> <dbl>        <dbl>    <dbl>       <dbl>        <dbl> <chr>     
    ##  1 DISHT     1     1        1828.     89.7        193.       0.105  DI        
    ##  2 DISHT     2     1        1449.    199.         153.       0.106  DI        
    ##  3 DISHT     3     1        1517.     84.5        169.       0.111  DI        
    ##  4 DISHT     4     1        1313.    131.         162.       0.123  DI        
    ##  5 DISHT     5     1        1152.     95.2        132.       0.115  DI        
    ##  6 DISHT     6     1        1173.    142.         140.       0.119  DI        
    ##  7 DISHT     7     1        1495.     93.6        149.       0.0995 DI        
    ##  8 DISHT     8     1        1307.    120.         138.       0.106  DI        
    ##  9 DISHT     9     1        1538.    114.         162.       0.105  DI        
    ## 10 DISHT    10     1        1287.    104.         136.       0.106  DI        
    ## # … with 239 more rows
…
