…
    day_by_day %>% 
      filter(timing == "AD") %>% 
      group_by(site, timing, day, ox_enrich, wfps_bin) %>% 
      summarise(
        normality_p = shapiro.test(co2_flux_umol_hr_g_soilC)$p.value
      ) %>% 
      arrange(normality_p)

    ## # A tibble: 72 × 6
    ## # Groups:   site, timing, day, ox_enrich [36]
    ##    site  timing   day ox_enrich   wfps_bin  normality_p
    ##    <fct> <chr>  <dbl> <chr>       <fct>           <dbl>
    ##  1 DISHC AD         1 Enriched    > 60 %         0.0292
    ##  2 DISHT AD         2 Atmospheric 15 - 60 %      0.0594
    ##  3 DISHC AD         1 Enriched    15 - 60 %      0.0643
    ##  4 DISHC AD         3 Enriched    > 60 %         0.0782
    ##  5 DISHT AD         7 Atmospheric > 60 %         0.0843
    ##  6 DISHR AD         7 Atmospheric > 60 %         0.0881
    ##  7 DISHC AD        14 Atmospheric > 60 %         0.126 
    ##  8 DISHT AD        10 Atmospheric 15 - 60 %      0.166 
    ##  9 DISHT AD         1 Atmospheric 15 - 60 %      0.176 
    ## 10 DISHC AD         1 Atmospheric > 60 %         0.237 
    ## # … with 62 more rows
…
    day_by_day %>% 
      filter(timing == "AD") %>% 
      group_by(site, timing, day, ox_enrich, wfps_bin) %>% 
      summarise(
        normality_p = shapiro.test(co2_flux_umol_hr_g_soilC)$p.value
      ) %>% 
      arrange(normality_p)

    ## # A tibble: 72 × 6
    ## # Groups:   site, timing, day, ox_enrich [36]
    ##    site  timing   day ox_enrich   wfps_bin  normality_p
    ##    <fct> <chr>  <dbl> <chr>       <fct>           <dbl>
    ##  1 DISHC AD         1 Enriched    > 60 %         0.0292
    ##  2 DISHT AD         2 Atmospheric 15 - 60 %      0.0594
    ##  3 DISHC AD         1 Enriched    15 - 60 %      0.0643
    ##  4 DISHC AD         3 Enriched    > 60 %         0.0782
    ##  5 DISHT AD         7 Atmospheric > 60 %         0.0843
    ##  6 DISHR AD         7 Atmospheric > 60 %         0.0881
    ##  7 DISHC AD        14 Atmospheric > 60 %         0.126 
    ##  8 DISHT AD        10 Atmospheric 15 - 60 %      0.166 
    ##  9 DISHT AD         1 Atmospheric 15 - 60 %      0.176 
    ## 10 DISHC AD         1 Atmospheric > 60 %         0.237 
    ## # … with 62 more rows
…
#### T-test(s)

For every day that it is valid, I will do a t-test between the
Atmospheric and Enriched treatment.

    day_by_day %>% 
      filter(!(site == "DISHC" & timing == "AD" & day == 1)) %>% 
      filter(timing == "AD") %>% 
      group_by(site, timing, day, ox_enrich, wfps_bin) %>% 
      summarise(
        normality_p = shapiro.test(co2_flux_umol_hr_g_soilC)$p.value
      ) %>% 
      arrange(normality_p)

    ## # A tibble: 68 × 6
    ## # Groups:   site, timing, day, ox_enrich [34]
    ##    site  timing   day ox_enrich   wfps_bin  normality_p
    ##    <fct> <chr>  <dbl> <chr>       <fct>           <dbl>
    ##  1 DISHT AD         2 Atmospheric 15 - 60 %      0.0594
    ##  2 DISHC AD         3 Enriched    > 60 %         0.0782
    ##  3 DISHT AD         7 Atmospheric > 60 %         0.0843
    ##  4 DISHR AD         7 Atmospheric > 60 %         0.0881
    ##  5 DISHC AD        14 Atmospheric > 60 %         0.126 
    ##  6 DISHT AD        10 Atmospheric 15 - 60 %      0.166 
    ##  7 DISHT AD         1 Atmospheric 15 - 60 %      0.176 
    ##  8 DISHT AD        14 Enriched    > 60 %         0.246 
    ##  9 DISHR AD         7 Enriched    > 60 %         0.273 
    ## 10 DISHR AD        14 Enriched    > 60 %         0.301 
    ## # … with 58 more rows
…
      unite(site, timing, day, wfps_bin, col = category) %>% 
      select(category, ox_enrich, co2_flux_umol_hr_g_soilC) %>% 
      pivot_wider(
        id_cols = category, 
        names_from = ox_enrich, 
        values_from = co2_flux_umol_hr_g_soilC
      ) %>% 
      group_by(category) %>% 
      mutate(
        t_test = map2_dbl(Atmospheric, Enriched, ~t.test(.x, .y)$p.value)
      ) %>% 
      separate(category, into = c("site", "timing", "day", "wfps_bin")) %>% 
      arrange(site, timing, as.integer(day))

    ## # A tibble: 34 × 7
    ##    site  timing day   wfps_bin Enriched  Atmospheric t_test
    ##    <chr> <chr>  <chr> <chr>    <list>    <list>       <dbl>
    ##  1 DISHC AD     2     15       <dbl [3]> <dbl [3]>    0.965
    ##  2 DISHC AD     2     60       <dbl [3]> <dbl [3]>    0.265
    ##  3 DISHC AD     3     15       <dbl [3]> <dbl [3]>    0.912
    ##  4 DISHC AD     3     60       <dbl [3]> <dbl [3]>    0.323
    ##  5 DISHC AD     7     15       <dbl [3]> <dbl [3]>    0.928
    ##  6 DISHC AD     7     60       <dbl [3]> <dbl [3]>    0.459
    ##  7 DISHC AD     10    15       <dbl [3]> <dbl [3]>    0.974
    ##  8 DISHC AD     10    60       <dbl [3]> <dbl [3]>    0.171
    ##  9 DISHC AD     14    15       <dbl [3]> <dbl [3]>    0.398
    ## 10 DISHC AD     14    60       <dbl [3]> <dbl [3]>    0.803
    ## # … with 24 more rows
…
